…
``` {.r}
draws <- 10000

tibble(draw = 1:draws) %>% 
  mutate(
    ctrl = rst(n(), control$mean, control$sd / control$n, control$n - 1),
    trt = rst(n(), treatment$mean, treatment$sd / treatment$n, treatment$n - 1),
    difference = trt - ctrl
  ) 
```

    # A tibble: 10,000 x 4
        draw  ctrl   trt difference
       <int> <dbl> <dbl>      <dbl>
     1     1  1.02  1.18      0.158
     2     2  1.01  1.17      0.163
     3     3  1.00  1.18      0.181
     4     4  1.01  1.17      0.160
     5     5  1.01  1.17      0.151
     6     6  1.02  1.17      0.157
     7     7  1.02  1.16      0.140
     8     8  1.02  1.17      0.154
     9     9  1.01  1.18      0.167
    10    10  1.01  1.17      0.156
    # ... with 9,990 more rows
